This is BibTeX, Version 0.99dThe top-level auxiliary file: test_cv.aux
I found no \citation commands---while reading file test_cv.aux
I found no \bibdata command---while reading file test_cv.aux
I found no \bibstyle command---while reading file test_cv.aux
(There were 3 error messages)
